,persona,descripcion,fecha,monto,year,mes
1,2,liq,06-01,8181,2014,6
2,2,liq,07-01,8181,2014,7
3,2,liq,08-01,9026,2014,8
4,2,liq,09-01,9026,2014,9
5,2,liq,10-01,9026,2014,10
6,2,liq,11-01,9026,2014,11
7,2,liq,12-01,9026,2014,12
8,2,liq,01-01,9026,2015,1
9,2,liq,02-01,9026,2015,2
10,2,liq,03-01,9026,2015,3
11,2,liq,04-01,9026,2015,4
12,2,liq,05-01,9026,2015,5
13,2,liq,06-01,10597,2015,6
14,2,liq,07-01,10597,2015,7
15,2,liq,08-01,11500,2015,8
16,2,liq,09-01,11500,2015,9
17,2,liq,10-01,11500,2015,10
18,2,liq,11-01,11500,2015,11
19,2,liq,12-01,12075,2015,12
20,2,liq,01-01,12075,2016,1
21,2,liq,02-01,12075,2016,2
22,2,liq,03-01,12075,2016,3
23,2,liq,04-01,12075,2016,4
24,2,liq,05-01,12075,2016,5
25,2,liq,06-01,12920,2016,6
26,2,liq,07-01,14127,2016,7
27,2,liq,08-01,15818,2016,8
28,2,liq,09-01,15818,2016,9
29,2,liq,10-01,15818,2016,10
30,2,liq,11-01,15818,2016,11
31,2,liq,12-01,17568,2016,12
32,2,liq,01-01,17568,2017,1
33,2,liq,02-01,15818,2017,2
34,2,liq,03-01,15818,2017,3
35,2,liq,04-01,15818,2017,4
36,2,liq,05-01,15818,2017,5
37,2,liq,06-01,16609,2017,6
38,2,liq,07-01,17399,2017,7
39,2,liq,08-01,18981,2017,8
40,2,liq,09-01,18981,2017,9
41,2,liq,10-01,18981,2017,10
42,2,liq,11-01,18981,2017,11
43,2,liq,12-01,18981,2017,12
44,2,liq,01-01,18981,2018,1
45,2,liq,02-01,18981,2018,2
46,2,liq,03-01,18981,2018,3
47,2,liq,04-01,18981,2018,4
48,2,liq,05-01,18981,2018,5
49,2,liq,06-01,18981,2018,6
50,2,liq,07-01,20333,2018,7
51,2,liq,08-01,21517,2018,8
52,2,liq,09-01,22702,2018,9
53,2,liq,10-01,22702,2018,10
54,1,"21377,22",11-01,21377.22,2018,11
55,2,liq,11-01,26702,2018,11
56,1,"21377,22",12-01,21377.22,2018,12
57,2,liq,12-01,22702,2018,12
58,1,"21377,22",01-01,21377.22,2019,1
59,2,liq,01-01,22702,2019,1
60,1,"1.974,04",02-01,1974.04,2019,2
61,1,"19.374,23",02-01,19374.23,2019,2
62,2,liq,02-01,23689,2019,2
63,1,"19.472,38",03-01,19472.38,2019,3
64,2,liq,03-01,24676,2019,3
65,1,"21.472,38",04-01,21472.38,2019,4
66,1,"26.278,55",06-01,26278.55,2019,6
67,1,"28.047,3",07-01,28047.3,2019,7
68,1,5,08-01,5000,2019,8
69,1,"29.816,01",08-01,29816.01,2019,8
70,1,"29.816,01",09-01,29816.01,2019,9
71,1,"29.816,01",10-01,29816.01,2019,10
72,1,"29.816,01",11-01,29816.01,2019,11
73,1,9,12-01,9000,2019,12
74,1,"29.816,01",12-01,29816.01,2019,12
75,1,"31.079,41",01-01,31079.41,2020,1
76,1,"35.342,8",02-01,35342.8,2020,2
77,1,"36.342,8",03-01,36342.8,2020,3
78,1,"39.142,8",04-01,39142.8,2020,4
79,1,"41.942,8",05-01,41942.8,2020,5
80,1,"45.429,8",06-01,45429.8,2020,6
81,1,"45.429,8",07-01,45429.8,2020,7
82,1,"45.429,8",08-01,45429.8,2020,8
83,1,"45.429,8",09-01,45429.8,2020,9
84,1,"48.609,89",10-01,48609.89,2020,10
85,1,"48.609,89",11-01,48609.89,2020,11
86,1,15,12-01,15000,2020,12
87,1,"48.609,89",12-01,48609.89,2020,12
88,1,"48.609,89",01-01,48609.89,2021,1
89,1,"50.427,06",02-01,50427.06,2021,2
90,1,"53.152,85",03-01,53152.85,2021,3
91,1,"53.152,85",04-01,53152.85,2021,4
92,1,"56.787,23",05-01,56787.23,2021,5
93,1,"62.465,99",06-01,62465.99,2021,6
94,1,"62.465,99",07-01,62465.99,2021,7
95,1,"68.712,6",08-01,68712.6,2021,8
96,1,"74.959,32",09-01,74959.32,2021,9
97,1,"81.205,77",10-01,81205.77,2021,10
98,1,"81.205,77",11-01,81205.77,2021,11
99,1,20,12-01,20000,2021,12
100,1,"81.205,77",12-01,81205.77,2021,12
101,1,"84.045,14",01-01,84045.14,2022,1
102,1,"88.020,26",02-01,88020.26,2022,2
103,1,"88.020,26",03-01,88020.26,2022,3
104,1,"91.995,37",04-01,91995.37,2022,4
105,1,,,97674.11,2022,5
106,1,,,113301.95,2022,6
107,1,,,113301.95,2022,7
108,1,,,136889.28,2022,8
109,1,,,136889.28,2022,9
110,1,,,148610.16,2022,10
111,1,,,158377.6,2022,11
112,1,,,208377.6,2022,12
113,1,,,168145,2023,1
114,1,,,184959.49,2023,2
115,1,,,198411.1,2023,3
116,1,,,207036.94,2023,4
117,1,,,218423.98,2023,5
118,1,,,256512.95,2023,6
119,1,,,284729.39,2023,7
120,1,,,348896.93,2023,8
121,1,,,383975.6,2023,9
122,1,,,433770.36,2023,10
123,1,,,477147.37,2023,11
124,1,,,590090.63,2023,12
125,1,,,603305.13,2024,1
126,1,,,675701.73,2024,2
127,1,,,729757.87,2024,3
128,1,,,729757.87,2024,4
129,1,,,811052.91,2024,5
130,1,,,796457.73,2024,6
131,1,,,,2024,7
132,1,,,,2024,8
133,1,,,,2024,9
134,1,,,,2024,10
135,1,,,,2024,11
136,1,,,,2024,12
