35866 LIQ BECAS INTERNAS MARZO 2019	24676	2019-03
35860 LIQ.COMPL.BEC.INT.FEB/19	1974	2019-02
35852 LIQ. BEC INT FEB 2019	23689	2019-02
35818 LIQ BEC INT ENERO 2019	22702	2019-01
35787 LIQ BECAS INTERNAS 12/2018	22702	2018-12
35784 LIQ.COMP.BECINT 12/2018	5000	2018-12
35765 LIQ BEC INTERNAS NOV 2018	26702	2018-11
35741 LIQ.COMP-BECINT 10/18	2000	2018-10
35729 LIQ. BECAS INT. OCTUBRE 2018	22702	2018-10
35713 LIQ BECAS INTERNAS 09/2018	22702	2018-09
35692 LIQ BEC INT AGOSTO 2018	21517	2018-08
35679 LIQ. BEC. INT. JULIO 2018	20333	2018-07
35659 LIQ BEC INT JUNIO 2018	18981	2018-06
35642 LIQUIDACION BEC INT MAYO 2018	18981	2018-05
35613 LIQ BEC INT ABRIL 2018	18981	2018-04
35564 LIQ BEC INT MARZO 2018	18981	2018-03
35546 LIQ. BECAS INTERNAS 02/2018	18981	2018-02
35523 LIQ BEC INT ENERO 2018	18981	2018-01
35495 LIQUIDACION BEC INT 12/17	18981	2017-12
35460 LIQ. BEC. INTERNA 11/2017	18981	2017-11
35441 LIQ. BEC. INT. OCTUBRE 2017	18981	2017-10
35400 LIQ. BEC. INT 09/2017	18981	2017-09
35345 LIQ BEC INT AGOSTO 2017	18981	2017-08
35301 LIQ. BEC. INT JULIO/2017	17399	2017-07
35286 LIQ. BEC. INT. JUNIO 2017	16609	2017-06
35236 LIQ. BEC. INTERNAS MAYO 2017	15818	2017-05
35182 LIQ. BEC. INTERNAS 04/2017	15818	2017-04
35139 LIQ. BEC. INTERNA MARZO 2017	15818	2017-03
35103 LIQ. BEC. INT. 02/2017	15818	2017-02
35074 LIQ. BECAS INTERNAS 01/2017	17568	2017-01
35037 LIQ.BECINT 12/16	17568	2016-12
35000 LIQ BEC INTERNAS NOV-16	15818	2016-11
34936 LIQ. BEC. INTERNA 10/16	15818	2016-10
34856 LIQUIDACION BEC INTERNAS 09/16	15818	2016-09
34820 LIQ. BEC. INTERNAS AGOSTO-16	15818	2016-08
34756 LIQ. BEC. INTERNAS JULIO 2016	14127	2016-07
34724 LIQ . BEC-INTERNAS JUNIO 2016	12920	2016-06
34700 LIQ. BEC INTERNAS MAYO 2016	12075	2016-05
34683 LIQ. BEC. INT 04/16	12075	2016-04
34636 LIQ BECAS INTERNAS 03/2016	12075	2016-03
34560 LIQ BEC INT FEB 2016	12075	2016-02
34531 LIQ. BEC. INT 01/2016	12075	2016-01
34524 LIQ.COMPL.BEC.INT.12/15	1300	2015-12
34516 LIQ. BEC. INT. 12/2015	12075	2015-12
34456 Liq. Becas Internas 11/15	11500	2015-11
34405 Liq. Bec. Int. 10/15	11500	2015-10
34360 Liq. Bec. Int 09/2015	11500	2015-09
34315 Liq. Bec. Int. 08/15	11500	2015-08
34250 Liq.Bec.Int. 07/2015	10597	2015-07
34184 Liq. Bec. Int. 06/2015	10597	2015-06
34069 Liq. Bec. Int. 05/2015	9026	2015-05
33976 LIQ.BECINT 04/15	9026	2015-04
33909 Liq. Bec. Int. 03/2015	9026	2015-03
33844 Liq. Bec. Int. 02/2015	9026	2015-02
33704 LIQ.BECINT.01/2015	9026	2015-01
33687 LIQ.COMPL.BECINT.DIC/14	1000	2014-12
33664 Liq. Bec. Int. 12/2014	9026	2014-12
33591 Liq. Bec. Int. 11/2014	9026	2014-11
33544 Liq. Bec. Int 10/2014	9026	2014-10
33524 Liq. Bec. Int. 09/2014	9026	2014-09
33475 Liq. Bec. Int. Agosto 2014	9026	2014-08
33407 Liq. Bec. Int. 07/2014	8181	2014-07
33168 Liq. Bec. Int 06/2014	8181	2014-06
#33025 LIQ.BECINT 05/14	14087	2014-05
