2022-04-01	37418 LIQ BEC INT 04 2022	91.995,37
2022-03-01 	37376 LIQ BEC INT 03/2022 	88.020,26
2022-02-01 	37359 LIQ BEC INT 02/2022 	88.020,26
2022-01-01 	37343 LIQ BEC INT 01/2022 	84.045,14
2021-12-01 	37324 LIQ.COMP.BONO BECAS 12/2021 	20.000
2021-12-01 	37320 LIQ BEC INT 12/2021 	81.205,77
2021-11-01 	37216 LIQ BEC INT 11/2021 	81.205,77
2021-10-01 	37181 LIQ BEC INT 10/2021 	81.205,77
2021-09-01 	37159 LIQ BEC INT 09/2021 	74.959,32
2021-08-01 	37144 LIQ BEC INT 08/2021 	68.712,6
2021-07-01 	37128 LIQ BEC INT 07/2021 	62.465,99
2021-06-01 	37076 LIQ BEC INT 06/2021 	62.465,99
2021-05-01 	37059 LIQ BEC INT 05/21 	56.787,23
2021-04-01 	37027 LIQ BEC INT 04/21 	53.152,85
2021-03-01 	36969 LIQ BEC INT 03/21 	53.152,85
2021-02-01 	36886 LIQ BEC INT 02/21 	50.427,06
2021-01-01 	36857 LIQ BEC INT 01/21 	48.609,89
2020-12-01 	36806 LIQ.COMP.BECINT 12/20 	15.000
2020-12-01 	36746 LIQ BEC INT 12/20 	48.609,89
2020-11-01 	36646 LIQ BEC INT 11/20 	48.609,89
2020-10-01 	36546 LIQ BEC INT 10/20 	48.609,89
2020-09-01 	36453 LIQ BEC INT 09/20 	45.429,8
2020-08-01 	36332 LIQ BEC INT 08/20 	45.429,8
2020-07-01 	36275 LIQ BEC INT 07/20 	45.429,8
2020-06-01 	36256 LIQ BEC INT 06/20 	45.429,8
2020-05-01 	36192 LIQ BEC INT 05/20 	41.942,8
2020-04-01 	36133 LIQ BEC INT 04/20 	39.142,8
2020-03-01 	36118 LIQ BEC INT 03/20 	36.342,8
2020-02-01 	36095 LIQ BEC INT 02/20 	35.342,8
2020-01-01 	36083 LIQ BEC INTERNAS ENERO 2020 	31.079,41
#2020-06-01	36047 PROMESAS 2020 	45000
2019-12-01	36047 LIQ.COMP.BECINT 12/19 	9.000
2019-12-01	36042 LIQ BECAS INTERNAS DIC 2019 	29.816,01
2019-11-01	36017 LIQ BEC INTERNAS NOV 2019 	29.816,01
2019-10-01	36000 LIQ. BEC INTERNAS 10/2019 	29.816,01
2019-09-01	35977 LIQ BEC INTERNAS SEP-19 	29.816,01
2019-08-01	35958 LIQ.COM.BONO BECAS 08/2019 	5.000
2019-08-01	35954 LIQ BEC INT AGOSTO 2019 	29.816,01
2019-07-01	35932 LIQ. BEC. INTERNAS 07/2019 	28.047,3
2019-06-01	35918 LIQUIDACION BEC INT JUNIO 2019 	26.278,55
#2019-05-01	35901 LIQ BEC INT MAYO 2019 	48.617,28
2019-04-01	35885 LIQ. BEC. INTERNAS ABRIL 2019 	21.472,38
2019-03-01	35866 LIQ BECAS INTERNAS MARZO 2019 	19.472,38
2019-02-01	35860 LIQ.COMPL.BEC.INT.FEB/19 	1.974,04
2019-02-01	35852 LIQ. BEC INT FEB 2019 	19.374,23
2019-01-01	35818 LIQ BEC INT ENERO 2019 	21377,22
2018-12-01	35818 LIQ BEC INT ENERO 2019 	21377,22
2018-11-01	35818 LIQ BEC INT ENERO 2019 	21377,22
